^C:\USERS\POMODORA\DESKTOP\MALNATI_DEFINITIVO\PROGETTI\INFOSERVER\INFOSERVER\STDAFX.CPP
C:\USERS\POMODORA\DESKTOP\MALNATI_DEFINITIVO\PROGETTI\INFOSERVER\INFOSERVER\DEBUG\SERVERPROJECT.PCH
C:\USERS\POMODORA\DESKTOP\MALNATI_DEFINITIVO\PROGETTI\INFOSERVER\INFOSERVER\DEBUG\VC141.PDB
C:\USERS\POMODORA\DESKTOP\MALNATI_DEFINITIVO\PROGETTI\INFOSERVER\INFOSERVER\DEBUG\VC141.IDB
C:\USERS\POMODORA\DESKTOP\MALNATI_DEFINITIVO\PROGETTI\INFOSERVER\INFOSERVER\DEBUG\STDAFX.OBJ
^C:\USERS\POMODORA\DESKTOP\MALNATI_DEFINITIVO\PROGETTI\INFOSERVER\INFOSERVER\JSONWINDOW.CPP|C:\USERS\POMODORA\DESKTOP\MALNATI_DEFINITIVO\PROGETTI\INFOSERVER\INFOSERVER\SERVERPROJECT.CPP
C:\USERS\POMODORA\DESKTOP\MALNATI_DEFINITIVO\PROGETTI\INFOSERVER\INFOSERVER\DEBUG\VC141.PDB
C:\USERS\POMODORA\DESKTOP\MALNATI_DEFINITIVO\PROGETTI\INFOSERVER\INFOSERVER\DEBUG\VC141.IDB
C:\USERS\POMODORA\DESKTOP\MALNATI_DEFINITIVO\PROGETTI\INFOSERVER\INFOSERVER\DEBUG\JSONWINDOW.OBJ
C:\USERS\POMODORA\DESKTOP\MALNATI_DEFINITIVO\PROGETTI\INFOSERVER\INFOSERVER\DEBUG\SERVERPROJECT.OBJ
^C:\USERS\POMODORA\DESKTOP\MALNATI_DEFINITIVO\PROGETTI\INFOSERVER\INFOSERVER\JSONWINDOW.CPP
C:\USERS\POMODORA\DESKTOP\MALNATI_DEFINITIVO\PROGETTI\INFOSERVER\INFOSERVER\DEBUG\VC141.PDB
^C:\USERS\POMODORA\DESKTOP\MALNATI_DEFINITIVO\PROGETTI\INFOSERVER\INFOSERVER\SERVERPROJECT.CPP
C:\USERS\POMODORA\DESKTOP\MALNATI_DEFINITIVO\PROGETTI\INFOSERVER\INFOSERVER\DEBUG\VC141.PDB
C:\USERS\POMODORA\DESKTOP\MALNATI_DEFINITIVO\PROGETTI\INFOSERVER\INFOSERVER\DEBUG\VC141.IDB
C:\USERS\POMODORA\DESKTOP\MALNATI_DEFINITIVO\PROGETTI\INFOSERVER\INFOSERVER\DEBUG\SERVERPROJECT.OBJ
^C:\USERS\POMODORA\DESKTOP\MALNATI_DEFINITIVO\PROGETTIMALNATI\INFOSERVER\INFOSERVER\STDAFX.CPP
C:\USERS\POMODORA\DESKTOP\MALNATI_DEFINITIVO\PROGETTIMALNATI\INFOSERVER\INFOSERVER\DEBUG\SERVERPROJECT.PCH
C:\USERS\POMODORA\DESKTOP\MALNATI_DEFINITIVO\PROGETTIMALNATI\INFOSERVER\INFOSERVER\DEBUG\VC141.PDB
C:\USERS\POMODORA\DESKTOP\MALNATI_DEFINITIVO\PROGETTIMALNATI\INFOSERVER\INFOSERVER\DEBUG\VC141.IDB
C:\USERS\POMODORA\DESKTOP\MALNATI_DEFINITIVO\PROGETTIMALNATI\INFOSERVER\INFOSERVER\DEBUG\STDAFX.OBJ
^C:\USERS\POMODORA\DESKTOP\MALNATI_DEFINITIVO\PROGETTIMALNATI\INFOSERVER\INFOSERVER\JSONWINDOW.CPP|C:\USERS\POMODORA\DESKTOP\MALNATI_DEFINITIVO\PROGETTIMALNATI\INFOSERVER\INFOSERVER\SERVERPROJECT.CPP
C:\USERS\POMODORA\DESKTOP\MALNATI_DEFINITIVO\PROGETTIMALNATI\INFOSERVER\INFOSERVER\DEBUG\VC141.PDB
C:\USERS\POMODORA\DESKTOP\MALNATI_DEFINITIVO\PROGETTIMALNATI\INFOSERVER\INFOSERVER\DEBUG\VC141.IDB
C:\USERS\POMODORA\DESKTOP\MALNATI_DEFINITIVO\PROGETTIMALNATI\INFOSERVER\INFOSERVER\DEBUG\JSONWINDOW.OBJ
C:\USERS\POMODORA\DESKTOP\MALNATI_DEFINITIVO\PROGETTIMALNATI\INFOSERVER\INFOSERVER\DEBUG\SERVERPROJECT.OBJ
^C:\USERS\POMODORA\DESKTOP\MALNATI_DEFINITIVO\PROGETTIMALNATI\INFOSERVER\INFOSERVER\JSONWINDOW.CPP
C:\USERS\POMODORA\DESKTOP\MALNATI_DEFINITIVO\PROGETTIMALNATI\INFOSERVER\INFOSERVER\DEBUG\VC141.PDB
^C:\USERS\POMODORA\DESKTOP\MALNATI_DEFINITIVO\PROGETTIMALNATI\INFOSERVER\INFOSERVER\SERVERPROJECT.CPP
C:\USERS\POMODORA\DESKTOP\MALNATI_DEFINITIVO\PROGETTIMALNATI\INFOSERVER\INFOSERVER\DEBUG\VC141.PDB
C:\USERS\POMODORA\DESKTOP\MALNATI_DEFINITIVO\PROGETTIMALNATI\INFOSERVER\INFOSERVER\DEBUG\VC141.IDB
C:\USERS\POMODORA\DESKTOP\MALNATI_DEFINITIVO\PROGETTIMALNATI\INFOSERVER\INFOSERVER\DEBUG\SERVERPROJECT.OBJ
