^C:\USERS\POMODORA\DESKTOP\MALNATI_DEFINITIVO\PROGETTI\INFOSERVER\INFOSERVER\DEBUG\INFOSERVER.RES|C:\USERS\POMODORA\DESKTOP\MALNATI_DEFINITIVO\PROGETTI\INFOSERVER\INFOSERVER\DEBUG\JSONWINDOW.OBJ|C:\USERS\POMODORA\DESKTOP\MALNATI_DEFINITIVO\PROGETTI\INFOSERVER\INFOSERVER\DEBUG\SERVERPROJECT.OBJ|C:\USERS\POMODORA\DESKTOP\MALNATI_DEFINITIVO\PROGETTI\INFOSERVER\INFOSERVER\DEBUG\STDAFX.OBJ
C:\USERS\POMODORA\DESKTOP\MALNATI_DEFINITIVO\PROGETTI\INFOSERVER\DEBUG\SERVERPROJECT.EXE
C:\USERS\POMODORA\DESKTOP\MALNATI_DEFINITIVO\PROGETTI\INFOSERVER\DEBUG\SERVERPROJECT.ILK
C:\USERS\POMODORA\DESKTOP\MALNATI_DEFINITIVO\PROGETTI\INFOSERVER\DEBUG\SERVERPROJECT.PDB
^C:\USERS\POMODORA\DESKTOP\MALNATI_DEFINITIVO\PROGETTIMALNATI\INFOSERVER\INFOSERVER\DEBUG\INFOSERVER.RES|C:\USERS\POMODORA\DESKTOP\MALNATI_DEFINITIVO\PROGETTIMALNATI\INFOSERVER\INFOSERVER\DEBUG\JSONWINDOW.OBJ|C:\USERS\POMODORA\DESKTOP\MALNATI_DEFINITIVO\PROGETTIMALNATI\INFOSERVER\INFOSERVER\DEBUG\SERVERPROJECT.OBJ|C:\USERS\POMODORA\DESKTOP\MALNATI_DEFINITIVO\PROGETTIMALNATI\INFOSERVER\INFOSERVER\DEBUG\STDAFX.OBJ
C:\USERS\POMODORA\DESKTOP\MALNATI_DEFINITIVO\PROGETTIMALNATI\INFOSERVER\DEBUG\SERVERPROJECT.EXE
C:\USERS\POMODORA\DESKTOP\MALNATI_DEFINITIVO\PROGETTIMALNATI\INFOSERVER\DEBUG\SERVERPROJECT.ILK
C:\USERS\POMODORA\DESKTOP\MALNATI_DEFINITIVO\PROGETTIMALNATI\INFOSERVER\DEBUG\SERVERPROJECT.PDB
