^C:\USERS\POMODORA\DROPBOX\MALNATI_PER_SICUREZZA\INFOSERVER\INFOSERVER\STDAFX.CPP
/c /ZI /nologo /W3 /WX- /diagnostics:classic /sdl /Od /Oy- /D WIN32 /D _DEBUG /D _CRT_SECURE_NO_WARNINGS /D WIN32_LEAN_AND_MEAN /D _WINSOCK_DEPRECATED_NO_WARNINGS /D _CONSOLE /D _MBCS /Gm- /EHsc /RTC1 /MDd /GS /fp:precise /Zc:wchar_t /Zc:forScope /Zc:inline /Yc"stdafx.h" /Fp"DEBUG\INFOSERVER.PCH" /Fo"DEBUG\\" /Fd"DEBUG\VC141.PDB" /Gd /TP /analyze- /FC C:\USERS\POMODORA\DROPBOX\MALNATI_PER_SICUREZZA\INFOSERVER\INFOSERVER\STDAFX.CPP
^C:\USERS\POMODORA\DROPBOX\MALNATI_PER_SICUREZZA\INFOSERVER\INFOSERVER\JSONWINDOW.CPP
/c /ZI /nologo /W3 /WX- /diagnostics:classic /sdl /Od /Oy- /D WIN32 /D _DEBUG /D _CRT_SECURE_NO_WARNINGS /D WIN32_LEAN_AND_MEAN /D _WINSOCK_DEPRECATED_NO_WARNINGS /D _CONSOLE /D _MBCS /Gm- /EHsc /RTC1 /MDd /GS /fp:precise /Zc:wchar_t /Zc:forScope /Zc:inline /Yu"stdafx.h" /Fp"DEBUG\INFOSERVER.PCH" /Fo"DEBUG\\" /Fd"DEBUG\VC141.PDB" /Gd /TP /analyze- /FC C:\USERS\POMODORA\DROPBOX\MALNATI_PER_SICUREZZA\INFOSERVER\INFOSERVER\JSONWINDOW.CPP
^C:\USERS\POMODORA\DROPBOX\MALNATI_PER_SICUREZZA\INFOSERVER\INFOSERVER\INFOSERVER.CPP
/c /ZI /nologo /W3 /WX- /diagnostics:classic /sdl /Od /Oy- /D WIN32 /D _DEBUG /D _CRT_SECURE_NO_WARNINGS /D WIN32_LEAN_AND_MEAN /D _WINSOCK_DEPRECATED_NO_WARNINGS /D _CONSOLE /D _MBCS /Gm- /EHsc /RTC1 /MDd /GS /fp:precise /Zc:wchar_t /Zc:forScope /Zc:inline /Yu"stdafx.h" /Fp"DEBUG\INFOSERVER.PCH" /Fo"DEBUG\\" /Fd"DEBUG\VC141.PDB" /Gd /TP /analyze- /FC C:\USERS\POMODORA\DROPBOX\MALNATI_PER_SICUREZZA\INFOSERVER\INFOSERVER\INFOSERVER.CPP
^C:\USERS\POMODORA\DESKTOP\MALNATI_DEFINITIVO\MALNATAZZO\INFOSERVER\INFOSERVER\STDAFX.CPP
/c /ZI /nologo /W3 /WX- /diagnostics:classic /sdl /Od /Oy- /D WIN32 /D _DEBUG /D _CRT_SECURE_NO_WARNINGS /D WIN32_LEAN_AND_MEAN /D _WINSOCK_DEPRECATED_NO_WARNINGS /D _CONSOLE /D _MBCS /Gm- /EHsc /RTC1 /MDd /GS /fp:precise /Zc:wchar_t /Zc:forScope /Zc:inline /Yc"stdafx.h" /Fp"DEBUG\INFOSERVER.PCH" /Fo"DEBUG\\" /Fd"DEBUG\VC141.PDB" /Gd /TP /analyze- /FC C:\USERS\POMODORA\DESKTOP\MALNATI_DEFINITIVO\MALNATAZZO\INFOSERVER\INFOSERVER\STDAFX.CPP
^C:\USERS\POMODORA\DESKTOP\MALNATI_DEFINITIVO\MALNATAZZO\INFOSERVER\INFOSERVER\INFOSERVER.CPP
/c /ZI /nologo /W3 /WX- /diagnostics:classic /sdl /Od /Oy- /D WIN32 /D _DEBUG /D _CRT_SECURE_NO_WARNINGS /D WIN32_LEAN_AND_MEAN /D _WINSOCK_DEPRECATED_NO_WARNINGS /D _CONSOLE /D _MBCS /Gm- /EHsc /RTC1 /MDd /GS /fp:precise /Zc:wchar_t /Zc:forScope /Zc:inline /Yu"stdafx.h" /Fp"DEBUG\INFOSERVER.PCH" /Fo"DEBUG\\" /Fd"DEBUG\VC141.PDB" /Gd /TP /analyze- /FC C:\USERS\POMODORA\DESKTOP\MALNATI_DEFINITIVO\MALNATAZZO\INFOSERVER\INFOSERVER\INFOSERVER.CPP
^C:\USERS\POMODORA\DESKTOP\MALNATI_DEFINITIVO\MALNATAZZO\INFOSERVER\INFOSERVER\JSONWINDOW.CPP
/c /ZI /nologo /W3 /WX- /diagnostics:classic /sdl /Od /Oy- /D WIN32 /D _DEBUG /D _CRT_SECURE_NO_WARNINGS /D WIN32_LEAN_AND_MEAN /D _WINSOCK_DEPRECATED_NO_WARNINGS /D _CONSOLE /D _MBCS /Gm- /EHsc /RTC1 /MDd /GS /fp:precise /Zc:wchar_t /Zc:forScope /Zc:inline /Yu"stdafx.h" /Fp"DEBUG\INFOSERVER.PCH" /Fo"DEBUG\\" /Fd"DEBUG\VC141.PDB" /Gd /TP /analyze- /FC C:\USERS\POMODORA\DESKTOP\MALNATI_DEFINITIVO\MALNATAZZO\INFOSERVER\INFOSERVER\JSONWINDOW.CPP
