^C:\USERS\POMODORA\DROPBOX\MALNATI_PER_SICUREZZA\INFOSERVER\INFOSERVER\STDAFX.CPP
C:\USERS\POMODORA\DROPBOX\MALNATI_PER_SICUREZZA\INFOSERVER\INFOSERVER\DEBUG\INFOSERVER.PCH
C:\USERS\POMODORA\DROPBOX\MALNATI_PER_SICUREZZA\INFOSERVER\INFOSERVER\DEBUG\VC141.PDB
C:\USERS\POMODORA\DROPBOX\MALNATI_PER_SICUREZZA\INFOSERVER\INFOSERVER\DEBUG\VC141.IDB
C:\USERS\POMODORA\DROPBOX\MALNATI_PER_SICUREZZA\INFOSERVER\INFOSERVER\DEBUG\STDAFX.OBJ
^C:\USERS\POMODORA\DROPBOX\MALNATI_PER_SICUREZZA\INFOSERVER\INFOSERVER\INFOSERVER.CPP|C:\USERS\POMODORA\DROPBOX\MALNATI_PER_SICUREZZA\INFOSERVER\INFOSERVER\JSONWINDOW.CPP
C:\USERS\POMODORA\DROPBOX\MALNATI_PER_SICUREZZA\INFOSERVER\INFOSERVER\DEBUG\VC141.PDB
C:\USERS\POMODORA\DROPBOX\MALNATI_PER_SICUREZZA\INFOSERVER\INFOSERVER\DEBUG\VC141.IDB
C:\USERS\POMODORA\DROPBOX\MALNATI_PER_SICUREZZA\INFOSERVER\INFOSERVER\DEBUG\JSONWINDOW.OBJ
C:\USERS\POMODORA\DROPBOX\MALNATI_PER_SICUREZZA\INFOSERVER\INFOSERVER\DEBUG\INFOSERVER.OBJ
^C:\USERS\POMODORA\DROPBOX\MALNATI_PER_SICUREZZA\INFOSERVER\INFOSERVER\JSONWINDOW.CPP
C:\USERS\POMODORA\DROPBOX\MALNATI_PER_SICUREZZA\INFOSERVER\INFOSERVER\DEBUG\VC141.PDB
^C:\USERS\POMODORA\DROPBOX\MALNATI_PER_SICUREZZA\INFOSERVER\INFOSERVER\INFOSERVER.CPP
C:\USERS\POMODORA\DROPBOX\MALNATI_PER_SICUREZZA\INFOSERVER\INFOSERVER\DEBUG\VC141.PDB
C:\USERS\POMODORA\DROPBOX\MALNATI_PER_SICUREZZA\INFOSERVER\INFOSERVER\DEBUG\VC141.IDB
C:\USERS\POMODORA\DROPBOX\MALNATI_PER_SICUREZZA\INFOSERVER\INFOSERVER\DEBUG\INFOSERVER.OBJ
^C:\USERS\POMODORA\DESKTOP\MALNATI_DEFINITIVO\MALNATAZZO\INFOSERVER\INFOSERVER\STDAFX.CPP
C:\USERS\POMODORA\DESKTOP\MALNATI_DEFINITIVO\MALNATAZZO\INFOSERVER\INFOSERVER\DEBUG\INFOSERVER.PCH
C:\USERS\POMODORA\DESKTOP\MALNATI_DEFINITIVO\MALNATAZZO\INFOSERVER\INFOSERVER\DEBUG\VC141.PDB
C:\USERS\POMODORA\DESKTOP\MALNATI_DEFINITIVO\MALNATAZZO\INFOSERVER\INFOSERVER\DEBUG\VC141.IDB
C:\USERS\POMODORA\DESKTOP\MALNATI_DEFINITIVO\MALNATAZZO\INFOSERVER\INFOSERVER\DEBUG\STDAFX.OBJ
^C:\USERS\POMODORA\DESKTOP\MALNATI_DEFINITIVO\MALNATAZZO\INFOSERVER\INFOSERVER\INFOSERVER.CPP|C:\USERS\POMODORA\DESKTOP\MALNATI_DEFINITIVO\MALNATAZZO\INFOSERVER\INFOSERVER\JSONWINDOW.CPP
C:\USERS\POMODORA\DESKTOP\MALNATI_DEFINITIVO\MALNATAZZO\INFOSERVER\INFOSERVER\DEBUG\VC141.PDB
C:\USERS\POMODORA\DESKTOP\MALNATI_DEFINITIVO\MALNATAZZO\INFOSERVER\INFOSERVER\DEBUG\VC141.IDB
C:\USERS\POMODORA\DESKTOP\MALNATI_DEFINITIVO\MALNATAZZO\INFOSERVER\INFOSERVER\DEBUG\JSONWINDOW.OBJ
C:\USERS\POMODORA\DESKTOP\MALNATI_DEFINITIVO\MALNATAZZO\INFOSERVER\INFOSERVER\DEBUG\INFOSERVER.OBJ
^C:\USERS\POMODORA\DESKTOP\MALNATI_DEFINITIVO\MALNATAZZO\INFOSERVER\INFOSERVER\INFOSERVER.CPP
C:\USERS\POMODORA\DESKTOP\MALNATI_DEFINITIVO\MALNATAZZO\INFOSERVER\INFOSERVER\DEBUG\VC141.PDB
^C:\USERS\POMODORA\DESKTOP\MALNATI_DEFINITIVO\MALNATAZZO\INFOSERVER\INFOSERVER\JSONWINDOW.CPP
C:\USERS\POMODORA\DESKTOP\MALNATI_DEFINITIVO\MALNATAZZO\INFOSERVER\INFOSERVER\DEBUG\VC141.PDB
