^C:\USERS\POMODORA\DOWNLOADS\INFOSERVER\INFOSERVER\STDAFX.CPP
C:\USERS\POMODORA\DOWNLOADS\INFOSERVER\INFOSERVER\RELEASE\INFOSERVER.PCH
C:\USERS\POMODORA\DOWNLOADS\INFOSERVER\INFOSERVER\RELEASE\VC141.PDB
C:\USERS\POMODORA\DOWNLOADS\INFOSERVER\INFOSERVER\RELEASE\STDAFX.OBJ
