﻿  stdafx.cpp
  InfoServer.cpp
c:\users\pomodora\downloads\infoserver\infoserver\infoserver.cpp(10): warning C4603: 'WIN32_LEAN_AND_MEAN': la macro non è definita o la definizione è diversa dopo l'utilizzo di un'intestazione precompilata
  c:\users\pomodora\downloads\infoserver\infoserver\infoserver.cpp(10): note: Aggiungere la macro all'intestazione precompilata anziché definirla in questa posizione
  c:\users\pomodora\downloads\infoserver\infoserver\infoserver.cpp(13): note: uso dell'intestazione precompilata
c:\users\pomodora\downloads\infoserver\infoserver\infoserver.cpp(11): warning C4603: '_WINSOCK_DEPRECATED_NO_WARNINGS': la macro non è definita o la definizione è diversa dopo l'utilizzo di un'intestazione precompilata
  c:\users\pomodora\downloads\infoserver\infoserver\infoserver.cpp(11): note: Aggiungere la macro all'intestazione precompilata anziché definirla in questa posizione
  c:\users\pomodora\downloads\infoserver\infoserver\infoserver.cpp(13): note: uso dell'intestazione precompilata
c:\program files (x86)\windows kits\8.1\include\shared\ws2def.h(96): warning C4005: 'AF_IPX': ridefinizione macro
  c:\program files (x86)\windows kits\8.1\include\um\winsock.h(452): note: vedere la precedente definizione di 'AF_IPX'
c:\program files (x86)\windows kits\8.1\include\shared\ws2def.h(136): warning C4005: 'AF_MAX': ridefinizione macro
  c:\program files (x86)\windows kits\8.1\include\um\winsock.h(471): note: vedere la precedente definizione di 'AF_MAX'
c:\program files (x86)\windows kits\8.1\include\shared\ws2def.h(173): warning C4005: 'SO_DONTLINGER': ridefinizione macro
  c:\program files (x86)\windows kits\8.1\include\um\winsock.h(394): note: vedere la precedente definizione di 'SO_DONTLINGER'
c:\program files (x86)\windows kits\8.1\include\shared\ws2def.h(217): error C2011: 'sockaddr': ridefinizione tipo 'struct'
  c:\program files (x86)\windows kits\8.1\include\um\winsock.h(1002): note: vedere la dichiarazione di 'sockaddr'
c:\program files (x86)\windows kits\8.1\include\shared\ws2def.h(414): error C2059: errore di sintassi: 'costante'
c:\program files (x86)\windows kits\8.1\include\shared\ws2def.h(414): error C3805: 'costante': token imprevisto. Previsto '}' o ','.
c:\program files (x86)\windows kits\8.1\include\shared\ws2def.h(549): warning C4005: 'IN_CLASSA': ridefinizione macro
  c:\program files (x86)\windows kits\8.1\include\um\winsock.h(279): note: vedere la precedente definizione di 'IN_CLASSA'
c:\program files (x86)\windows kits\8.1\include\shared\ws2def.h(555): warning C4005: 'IN_CLASSB': ridefinizione macro
  c:\program files (x86)\windows kits\8.1\include\um\winsock.h(285): note: vedere la precedente definizione di 'IN_CLASSB'
c:\program files (x86)\windows kits\8.1\include\shared\ws2def.h(561): warning C4005: 'IN_CLASSC': ridefinizione macro
  c:\program files (x86)\windows kits\8.1\include\um\winsock.h(291): note: vedere la precedente definizione di 'IN_CLASSC'
c:\program files (x86)\windows kits\8.1\include\shared\ws2def.h(572): warning C4005: 'INADDR_ANY': ridefinizione macro
  c:\program files (x86)\windows kits\8.1\include\um\winsock.h(296): note: vedere la precedente definizione di 'INADDR_ANY'
c:\program files (x86)\windows kits\8.1\include\shared\ws2def.h(574): warning C4005: 'INADDR_BROADCAST': ridefinizione macro
  c:\program files (x86)\windows kits\8.1\include\um\winsock.h(298): note: vedere la precedente definizione di 'INADDR_BROADCAST'
c:\program files (x86)\windows kits\8.1\include\shared\ws2def.h(608): error C2011: 'sockaddr_in': ridefinizione tipo 'struct'
  c:\program files (x86)\windows kits\8.1\include\um\winsock.h(1006): note: vedere la dichiarazione di 'sockaddr_in'
c:\program files (x86)\windows kits\8.1\include\um\winsock2.h(125): error C2011: 'fd_set': ridefinizione tipo 'struct'
  c:\program files (x86)\windows kits\8.1\include\um\winsock.h(1014): note: vedere la dichiarazione di 'fd_set'
c:\program files (x86)\windows kits\8.1\include\um\winsock2.h(145): warning C4005: 'FD_CLR': ridefinizione macro
  c:\program files (x86)\windows kits\8.1\include\um\winsock.h(89): note: vedere la precedente definizione di 'FD_CLR'
c:\program files (x86)\windows kits\8.1\include\um\winsock2.h(160): warning C4005: 'FD_SET': ridefinizione macro
  c:\program files (x86)\windows kits\8.1\include\um\winsock.h(94): note: vedere la precedente definizione di 'FD_SET'
c:\program files (x86)\windows kits\8.1\include\um\winsock2.h(169): error C2011: 'timeval': ridefinizione tipo 'struct'
  c:\program files (x86)\windows kits\8.1\include\um\winsock.h(1030): note: vedere la dichiarazione di 'timeval'
c:\program files (x86)\windows kits\8.1\include\um\winsock2.h(225): error C2011: 'hostent': ridefinizione tipo 'struct'
  c:\program files (x86)\windows kits\8.1\include\um\winsock.h(1018): note: vedere la dichiarazione di 'hostent'
c:\program files (x86)\windows kits\8.1\include\um\winsock2.h(238): error C2011: 'netent': ridefinizione tipo 'struct'
  c:\program files (x86)\windows kits\8.1\include\um\winsock.h(172): note: vedere la dichiarazione di 'netent'
c:\program files (x86)\windows kits\8.1\include\um\winsock2.h(245): error C2011: 'servent': ridefinizione tipo 'struct'
  c:\program files (x86)\windows kits\8.1\include\um\winsock.h(1022): note: vedere la dichiarazione di 'servent'
c:\program files (x86)\windows kits\8.1\include\um\winsock2.h(257): error C2011: 'protoent': ridefinizione tipo 'struct'
  c:\program files (x86)\windows kits\8.1\include\um\winsock.h(1026): note: vedere la dichiarazione di 'protoent'
c:\program files (x86)\windows kits\8.1\include\um\winsock2.h(353): error C2011: 'WSAData': ridefinizione tipo 'struct'
  c:\program files (x86)\windows kits\8.1\include\um\winsock.h(314): note: vedere la dichiarazione di 'WSAData'
c:\program files (x86)\windows kits\8.1\include\um\winsock2.h(451): error C2011: 'sockproto': ridefinizione tipo 'struct'
  c:\program files (x86)\windows kits\8.1\include\um\winsock.h(486): note: vedere la dichiarazione di 'sockproto'
c:\program files (x86)\windows kits\8.1\include\um\winsock2.h(493): error C2011: 'linger': ridefinizione tipo 'struct'
  c:\program files (x86)\windows kits\8.1\include\um\winsock.h(1010): note: vedere la dichiarazione di 'linger'
c:\program files (x86)\windows kits\8.1\include\um\winsock2.h(506): warning C4005: 'SOMAXCONN': ridefinizione macro
  c:\program files (x86)\windows kits\8.1\include\um\winsock.h(536): note: vedere la precedente definizione di 'SOMAXCONN'
c:\program files (x86)\windows kits\8.1\include\um\winsock2.h(540): warning C4005: 'FD_READ': ridefinizione macro
  c:\program files (x86)\windows kits\8.1\include\um\winsock.h(554): note: vedere la precedente definizione di 'FD_READ'
c:\program files (x86)\windows kits\8.1\include\um\winsock2.h(543): warning C4005: 'FD_WRITE': ridefinizione macro
  c:\program files (x86)\windows kits\8.1\include\um\winsock.h(555): note: vedere la precedente definizione di 'FD_WRITE'
c:\program files (x86)\windows kits\8.1\include\um\winsock2.h(546): warning C4005: 'FD_OOB': ridefinizione macro
  c:\program files (x86)\windows kits\8.1\include\um\winsock.h(556): note: vedere la precedente definizione di 'FD_OOB'
c:\program files (x86)\windows kits\8.1\include\um\winsock2.h(549): warning C4005: 'FD_ACCEPT': ridefinizione macro
  c:\program files (x86)\windows kits\8.1\include\um\winsock.h(557): note: vedere la precedente definizione di 'FD_ACCEPT'
c:\program files (x86)\windows kits\8.1\include\um\winsock2.h(552): warning C4005: 'FD_CONNECT': ridefinizione macro
  c:\program files (x86)\windows kits\8.1\include\um\winsock.h(558): note: vedere la precedente definizione di 'FD_CONNECT'
c:\program files (x86)\windows kits\8.1\include\um\winsock2.h(555): warning C4005: 'FD_CLOSE': ridefinizione macro
  c:\program files (x86)\windows kits\8.1\include\um\winsock.h(559): note: vedere la precedente definizione di 'FD_CLOSE'
c:\program files (x86)\windows kits\8.1\include\um\winsock2.h(1577): error C2375: 'accept': ridefinizione. Collegamento differente.
  c:\program files (x86)\windows kits\8.1\include\um\winsock.h(734): note: vedere la dichiarazione di 'accept'
c:\program files (x86)\windows kits\8.1\include\um\winsock2.h(1599): error C2375: 'bind': ridefinizione. Collegamento differente.
  c:\program files (x86)\windows kits\8.1\include\um\winsock.h(739): note: vedere la dichiarazione di 'bind'
c:\program files (x86)\windows kits\8.1\include\um\winsock2.h(1620): error C2375: 'closesocket': ridefinizione. Collegamento differente.
  c:\program files (x86)\windows kits\8.1\include\um\winsock.h(744): note: vedere la dichiarazione di 'closesocket'
c:\program files (x86)\windows kits\8.1\include\um\winsock2.h(1637): error C2375: 'connect': ridefinizione. Collegamento differente.
  c:\program files (x86)\windows kits\8.1\include\um\winsock.h(746): note: vedere la dichiarazione di 'connect'
c:\program files (x86)\windows kits\8.1\include\um\winsock2.h(1658): error C2375: 'ioctlsocket': ridefinizione. Collegamento differente.
  c:\program files (x86)\windows kits\8.1\include\um\winsock.h(751): note: vedere la dichiarazione di 'ioctlsocket'
c:\program files (x86)\windows kits\8.1\include\um\winsock2.h(1679): error C2375: 'getpeername': ridefinizione. Collegamento differente.
  c:\program files (x86)\windows kits\8.1\include\um\winsock.h(756): note: vedere la dichiarazione di 'getpeername'
c:\program files (x86)\windows kits\8.1\include\um\winsock2.h(1700): error C2375: 'getsockname': ridefinizione. Collegamento differente.
  c:\program files (x86)\windows kits\8.1\include\um\winsock.h(761): note: vedere la dichiarazione di 'getsockname'
c:\program files (x86)\windows kits\8.1\include\um\winsock2.h(1721): error C2375: 'getsockopt': ridefinizione. Collegamento differente.
  c:\program files (x86)\windows kits\8.1\include\um\winsock.h(766): note: vedere la dichiarazione di 'getsockopt'
c:\program files (x86)\windows kits\8.1\include\um\winsock2.h(1746): error C2375: 'htonl': ridefinizione. Collegamento differente.
  c:\program files (x86)\windows kits\8.1\include\um\winsock.h(773): note: vedere la dichiarazione di 'htonl'
c:\program files (x86)\windows kits\8.1\include\um\winsock2.h(1763): error C2375: 'htons': ridefinizione. Collegamento differente.
  c:\program files (x86)\windows kits\8.1\include\um\winsock.h(775): note: vedere la dichiarazione di 'htons'
c:\program files (x86)\windows kits\8.1\include\um\winsock2.h(1780): error C2375: 'inet_addr': ridefinizione. Collegamento differente.
  c:\program files (x86)\windows kits\8.1\include\um\winsock.h(777): note: vedere la dichiarazione di 'inet_addr'
c:\program files (x86)\windows kits\8.1\include\um\winsock2.h(1797): error C2375: 'inet_ntoa': ridefinizione. Collegamento differente.
  c:\program files (x86)\windows kits\8.1\include\um\winsock.h(779): note: vedere la dichiarazione di 'inet_ntoa'
c:\program files (x86)\windows kits\8.1\include\um\winsock2.h(1897): error C2375: 'listen': ridefinizione. Collegamento differente.
  c:\program files (x86)\windows kits\8.1\include\um\winsock.h(781): note: vedere la dichiarazione di 'listen'
c:\program files (x86)\windows kits\8.1\include\um\winsock2.h(1916): error C2375: 'ntohl': ridefinizione. Collegamento differente.
  c:\program files (x86)\windows kits\8.1\include\um\winsock.h(785): note: vedere la dichiarazione di 'ntohl'
c:\program files (x86)\windows kits\8.1\include\um\winsock2.h(1933): error C2375: 'ntohs': ridefinizione. Collegamento differente.
  c:\program files (x86)\windows kits\8.1\include\um\winsock.h(787): note: vedere la dichiarazione di 'ntohs'
c:\program files (x86)\windows kits\8.1\include\um\winsock2.h(1950): error C2375: 'recv': ridefinizione. Collegamento differente.
  c:\program files (x86)\windows kits\8.1\include\um\winsock.h(789): note: vedere la dichiarazione di 'recv'
c:\program files (x86)\windows kits\8.1\include\um\winsock2.h(1973): error C2375: 'recvfrom': ridefinizione. Collegamento differente.
  c:\program files (x86)\windows kits\8.1\include\um\winsock.h(795): note: vedere la dichiarazione di 'recvfrom'
c:\program files (x86)\windows kits\8.1\include\um\winsock2.h(2000): error C2375: 'select': ridefinizione. Collegamento differente.
  c:\program files (x86)\windows kits\8.1\include\um\winsock.h(803): note: vedere la dichiarazione di 'select'
c:\program files (x86)\windows kits\8.1\include\um\winsock2.h(2025): error C2375: 'send': ridefinizione. Collegamento differente.
  c:\program files (x86)\windows kits\8.1\include\um\winsock.h(810): note: vedere la dichiarazione di 'send'
c:\program files (x86)\windows kits\8.1\include\um\winsock2.h(2048): error C2375: 'sendto': ridefinizione. Collegamento differente.
  c:\program files (x86)\windows kits\8.1\include\um\winsock.h(816): note: vedere la dichiarazione di 'sendto'
c:\program files (x86)\windows kits\8.1\include\um\winsock2.h(2075): error C2375: 'setsockopt': ridefinizione. Collegamento differente.
  c:\program files (x86)\windows kits\8.1\include\um\winsock.h(824): note: vedere la dichiarazione di 'setsockopt'
c:\program files (x86)\windows kits\8.1\include\um\winsock2.h(2100): error C2375: 'shutdown': ridefinizione. Collegamento differente.
  c:\program files (x86)\windows kits\8.1\include\um\winsock.h(831): note: vedere la dichiarazione di 'shutdown'
c:\program files (x86)\windows kits\8.1\include\um\winsock2.h(2120): error C2375: 'socket': ridefinizione. Collegamento differente.
  c:\program files (x86)\windows kits\8.1\include\um\winsock.h(835): note: vedere la dichiarazione di 'socket'
c:\program files (x86)\windows kits\8.1\include\um\winsock2.h(2144): error C2375: 'gethostbyaddr': ridefinizione. Collegamento differente.
  c:\program files (x86)\windows kits\8.1\include\um\winsock.h(842): note: vedere la dichiarazione di 'gethostbyaddr'
c:\program files (x86)\windows kits\8.1\include\um\winsock2.h(2165): error C2375: 'gethostbyname': ridefinizione. Collegamento differente.
  c:\program files (x86)\windows kits\8.1\include\um\winsock.h(847): note: vedere la dichiarazione di 'gethostbyname'
c:\program files (x86)\windows kits\8.1\include\um\winsock2.h(2182): error C2375: 'gethostname': ridefinizione. Collegamento differente.
  c:\program files (x86)\windows kits\8.1\include\um\winsock.h(849): note: vedere la dichiarazione di 'gethostname'
c:\program files (x86)\windows kits\8.1\include\um\winsock2.h(2222): error C2375: 'getservbyport': ridefinizione. Collegamento differente.
  c:\program files (x86)\windows kits\8.1\include\um\winsock.h(853): note: vedere la dichiarazione di 'getservbyport'
c:\program files (x86)\windows kits\8.1\include\um\winsock2.h(2241): error C2375: 'getservbyname': ridefinizione. Collegamento differente.
  c:\program files (x86)\windows kits\8.1\include\um\winsock.h(857): note: vedere la dichiarazione di 'getservbyname'
c:\program files (x86)\windows kits\8.1\include\um\winsock2.h(2260): error C2375: 'getprotobynumber': ridefinizione. Collegamento differente.
  c:\program files (x86)\windows kits\8.1\include\um\winsock.h(861): note: vedere la dichiarazione di 'getprotobynumber'
c:\program files (x86)\windows kits\8.1\include\um\winsock2.h(2277): error C2375: 'getprotobyname': ridefinizione. Collegamento differente.
  c:\program files (x86)\windows kits\8.1\include\um\winsock.h(863): note: vedere la dichiarazione di 'getprotobyname'
c:\program files (x86)\windows kits\8.1\include\um\winsock2.h(2297): error C2375: 'WSAStartup': ridefinizione. Collegamento differente.
  c:\program files (x86)\windows kits\8.1\include\um\winsock.h(867): note: vedere la dichiarazione di 'WSAStartup'
c:\program files (x86)\windows kits\8.1\include\um\winsock2.h(2317): error C2375: 'WSACleanup': ridefinizione. Collegamento differente.
  c:\program files (x86)\windows kits\8.1\include\um\winsock.h(871): note: vedere la dichiarazione di 'WSACleanup'
c:\program files (x86)\windows kits\8.1\include\um\winsock2.h(2334): error C2375: 'WSASetLastError': ridefinizione. Collegamento differente.
  c:\program files (x86)\windows kits\8.1\include\um\winsock.h(873): note: vedere la dichiarazione di 'WSASetLastError'
c:\program files (x86)\windows kits\8.1\include\um\winsock2.h(2351): error C2375: 'WSAGetLastError': ridefinizione. Collegamento differente.
  c:\program files (x86)\windows kits\8.1\include\um\winsock.h(875): note: vedere la dichiarazione di 'WSAGetLastError'
c:\program files (x86)\windows kits\8.1\include\um\winsock2.h(2368): error C2375: 'WSAIsBlocking': ridefinizione. Collegamento differente.
  c:\program files (x86)\windows kits\8.1\include\um\winsock.h(877): note: vedere la dichiarazione di 'WSAIsBlocking'
c:\program files (x86)\windows kits\8.1\include\um\winsock2.h(2385): error C2375: 'WSAUnhookBlockingHook': ridefinizione. Collegamento differente.
  c:\program files (x86)\windows kits\8.1\include\um\winsock.h(879): note: vedere la dichiarazione di 'WSAUnhookBlockingHook'
c:\program files (x86)\windows kits\8.1\include\um\winsock2.h(2402): error C2375: 'WSASetBlockingHook': ridefinizione. Collegamento differente.
  c:\program files (x86)\windows kits\8.1\include\um\winsock.h(881): note: vedere la dichiarazione di 'WSASetBlockingHook'
c:\program files (x86)\windows kits\8.1\include\um\winsock2.h(2419): error C2375: 'WSACancelBlockingCall': ridefinizione. Collegamento differente.
  c:\program files (x86)\windows kits\8.1\include\um\winsock.h(883): note: vedere la dichiarazione di 'WSACancelBlockingCall'
c:\program files (x86)\windows kits\8.1\include\um\winsock2.h(2436): error C2375: 'WSAAsyncGetServByName': ridefinizione. Collegamento differente.
  c:\program files (x86)\windows kits\8.1\include\um\winsock.h(885): note: vedere la dichiarazione di 'WSAAsyncGetServByName'
c:\program files (x86)\windows kits\8.1\include\um\winsock2.h(2463): error C2375: 'WSAAsyncGetServByPort': ridefinizione. Collegamento differente.
  c:\program files (x86)\windows kits\8.1\include\um\winsock.h(893): note: vedere la dichiarazione di 'WSAAsyncGetServByPort'
c:\program files (x86)\windows kits\8.1\include\um\winsock2.h(2490): error C2375: 'WSAAsyncGetProtoByName': ridefinizione. Collegamento differente.
  c:\program files (x86)\windows kits\8.1\include\um\winsock.h(901): note: vedere la dichiarazione di 'WSAAsyncGetProtoByName'
c:\program files (x86)\windows kits\8.1\include\um\winsock2.h(2515): error C2375: 'WSAAsyncGetProtoByNumber': ridefinizione. Collegamento differente.
  c:\program files (x86)\windows kits\8.1\include\um\winsock.h(908): note: vedere la dichiarazione di 'WSAAsyncGetProtoByNumber'
c:\program files (x86)\windows kits\8.1\include\um\winsock2.h(2540): error C2375: 'WSAAsyncGetHostByName': ridefinizione. Collegamento differente.
  c:\program files (x86)\windows kits\8.1\include\um\winsock.h(915): note: vedere la dichiarazione di 'WSAAsyncGetHostByName'
c:\program files (x86)\windows kits\8.1\include\um\winsock2.h(2565): error C2375: 'WSAAsyncGetHostByAddr': ridefinizione. Collegamento differente.
  c:\program files (x86)\windows kits\8.1\include\um\winsock.h(922): note: vedere la dichiarazione di 'WSAAsyncGetHostByAddr'
c:\program files (x86)\windows kits\8.1\include\um\winsock2.h(2594): error C2375: 'WSACancelAsyncRequest': ridefinizione. Collegamento differente.
  c:\program files (x86)\windows kits\8.1\include\um\winsock.h(931): note: vedere la dichiarazione di 'WSACancelAsyncRequest'
c:\program files (x86)\windows kits\8.1\include\um\winsock2.h(2611): error C2375: 'WSAAsyncSelect': ridefinizione. Collegamento differente.
  c:\program files (x86)\windows kits\8.1\include\um\winsock.h(933): note: vedere la dichiarazione di 'WSAAsyncSelect'
c:\program files (x86)\windows kits\8.1\include\shared\ws2ipdef.h(80): error C2079: 'sockaddr_gen::Address' utilizza struct 'sockaddr' non definito
c:\program files (x86)\windows kits\8.1\include\shared\ws2ipdef.h(81): error C2079: 'sockaddr_gen::AddressIn' utilizza struct 'sockaddr_in' non definito
c:\program files (x86)\windows kits\8.1\include\shared\ws2ipdef.h(124): warning C4005: 'IP_TOS': ridefinizione macro
  c:\program files (x86)\windows kits\8.1\include\um\winsock.h(344): note: vedere la precedente definizione di 'IP_TOS'
c:\program files (x86)\windows kits\8.1\include\shared\ws2ipdef.h(125): warning C4005: 'IP_TTL': ridefinizione macro
  c:\program files (x86)\windows kits\8.1\include\um\winsock.h(343): note: vedere la precedente definizione di 'IP_TTL'
c:\program files (x86)\windows kits\8.1\include\shared\ws2ipdef.h(126): warning C4005: 'IP_MULTICAST_IF': ridefinizione macro
  c:\program files (x86)\windows kits\8.1\include\um\winsock.h(338): note: vedere la precedente definizione di 'IP_MULTICAST_IF'
c:\program files (x86)\windows kits\8.1\include\shared\ws2ipdef.h(127): warning C4005: 'IP_MULTICAST_TTL': ridefinizione macro
  c:\program files (x86)\windows kits\8.1\include\um\winsock.h(339): note: vedere la precedente definizione di 'IP_MULTICAST_TTL'
c:\program files (x86)\windows kits\8.1\include\shared\ws2ipdef.h(128): warning C4005: 'IP_MULTICAST_LOOP': ridefinizione macro
  c:\program files (x86)\windows kits\8.1\include\um\winsock.h(340): note: vedere la precedente definizione di 'IP_MULTICAST_LOOP'
c:\program files (x86)\windows kits\8.1\include\shared\ws2ipdef.h(129): warning C4005: 'IP_ADD_MEMBERSHIP': ridefinizione macro
  c:\program files (x86)\windows kits\8.1\include\um\winsock.h(341): note: vedere la precedente definizione di 'IP_ADD_MEMBERSHIP'
c:\program files (x86)\windows kits\8.1\include\shared\ws2ipdef.h(130): warning C4005: 'IP_DROP_MEMBERSHIP': ridefinizione macro
  c:\program files (x86)\windows kits\8.1\include\um\winsock.h(342): note: vedere la precedente definizione di 'IP_DROP_MEMBERSHIP'
c:\program files (x86)\windows kits\8.1\include\shared\ws2ipdef.h(131): warning C4005: 'IP_DONTFRAGMENT': ridefinizione macro
  c:\program files (x86)\windows kits\8.1\include\um\winsock.h(345): note: vedere la precedente definizione di 'IP_DONTFRAGMENT'
c:\program files (x86)\windows kits\8.1\include\shared\ws2ipdef.h(202): error C2079: '_SOCKADDR_INET::Ipv4' utilizza struct 'sockaddr_in' non definito
c:\program files (x86)\windows kits\8.1\include\shared\ws2ipdef.h(715): error C2011: 'ip_mreq': ridefinizione tipo 'struct'
  c:\program files (x86)\windows kits\8.1\include\um\winsock.h(355): note: vedere la dichiarazione di 'ip_mreq'
c:\users\pomodora\downloads\infoserver\infoserver\infoserver.cpp(38): fatal error C1083: Non è possibile aprire il file inclusione: 'json.hpp': No such file or directory
  JsonWindow.cpp
c:\users\pomodora\downloads\infoserver\infoserver\jsonwindow.h(2): fatal error C1083: Non è possibile aprire il file inclusione: 'json.hpp': No such file or directory
